dump.vcd
$date
	Fri Mar 01 19:24:15 2024
$end
$version
	ModelSim Version 2020.1
$end
$timescale
	1ps
$end

$scope module top $end
$var reg 1 ! CLK $end
$var reg 1 " MNMX $end
$var reg 1 # TEST $end
$var reg 1 $ RESET $end
$var reg 1 % READY $end
$var reg 1 & NMI $end
$var reg 1 ' INTR $end
$var reg 1 ( HOLD $end
$var wire 1 ) AD [7] $end
$var wire 1 * AD [6] $end
$var wire 1 + AD [5] $end
$var wire 1 , AD [4] $end
$var wire 1 - AD [3] $end
$var wire 1 . AD [2] $end
$var wire 1 / AD [1] $end
$var wire 1 0 AD [0] $end
$var reg 12 1 A [19:8] $end
$var reg 1 2 HLDA $end
$var reg 1 3 IOM $end
$var reg 1 4 WR $end
$var reg 1 5 RD $end
$var reg 1 6 SSO $end
$var reg 1 7 INTA $end
$var reg 1 8 ALE $end
$var reg 1 9 DTR $end
$var reg 1 : DEN $end
$var reg 20 ; Address [19:0] $end
$var wire 1 < Data [7] $end
$var wire 1 = Data [6] $end
$var wire 1 > Data [5] $end
$var wire 1 ? Data [4] $end
$var wire 1 @ Data [3] $end
$var wire 1 A Data [2] $end
$var wire 1 B Data [1] $end
$var wire 1 C Data [0] $end

$scope module P $end
$upscope $end
$upscope $end

$scope begin std $end
$upscope $end
$enddefinitions $end
#0
$dumpvars
0!
1"
1#
0$
1%
0&
0'
0(
bx 1
02
03
04
05
06
17
08
09
0:
bx ;
z0
z/
z.
z-
z,
z+
z*
z)
zC
zB
zA
z@
z?
z>
z=
z<
$end
#50
1!
#100
0!
#150
1!
1$
#200
0!
bz 1
#250
1!
#300
0!
#350
1!
#400
0!
#450
1!
#500
0!
#550
1!
#600
0!
#650
1!
0$
#700
0!
#750
1!
#800
0!
bx 1
14
15
16
19
1:
#850
1!
#900
0!
#950
1!
#1000
0!
#1050
1!
#1100
0!
#1150
1!
#1200
0!
#1250
1!
#1300
0!
#1350
1!
#1400
0!
#1450
1!
#1500
0!
#1550
1!
#1600
0!
#1650
1!
#1700
0!
#1750
1!
#1800
0!
#1850
1!
#1900
0!
#1950
1!
#2000
0!
#2050
1!
#2100
0!
#2150
1!
#2200
0!
#2250
1!
#2300
0!
#2350
1!
#2400
0!
#2450
1!
#2500
0!
#2550
1!
#2600
0!
#2650
1!
#2700
0!
#2750
1!
#2800
0!
#2850
1!
#2900
0!
#2950
1!
#3000
0!
#3050
1!
#3100
0!
#3150
1!
#3200
0!
#3250
1!
#3300
0!
#3350
1!
#3400
0!
#3450
1!
#3500
0!
#3550
1!
#3600
0!
#3650
1!
#3700
0!
#3750
1!
#3800
0!
#3850
1!
#3900
0!
#3950
1!
#4000
0!
#4050
1!
#4100
0!
#4150
1!
#4200
0!
#4250
1!
#4300
0!
#4350
1!
#4400
0!
#4450
1!
#4500
0!
#4550
1!
#4600
0!
#4650
1!
#4700
0!
#4750
1!
#4800
0!
#4850
1!
#4900
0!
#4950
1!
#5000
0!
#5050
1!
#5100
0!
#5150
1!
#5200
0!
#5250
1!
#5300
0!
#5350
1!
#5400
0!
#5450
1!
#5500
0!
#5550
1!
#5600
0!
#5650
1!
#5700
0!
#5750
1!
#5800
0!
#5850
1!
#5900
0!
#5950
1!
#6000
0!
#6050
1!
#6100
0!
#6150
1!
#6200
0!
#6250
1!
#6300
0!
#6350
1!
#6400
0!
#6450
1!
#6500
0!
#6550
1!
#6600
0!
#6650
1!
#6700
0!
#6750
1!
#6800
0!
#6850
1!
#6900
0!
#6950
1!
#7000
0!
#7050
1!
#7100
0!
#7150
1!
#7200
0!
#7250
1!
#7300
0!
#7350
1!
#7400
0!
#7450
1!
#7500
0!
#7550
1!
#7600
0!
#7650
1!
#7700
0!
#7750
1!
#7800
0!
#7850
1!
#7900
0!
#7950
1!
#8000
0!
#8050
1!
#8100
0!
#8150
1!
#8200
0!
#8250
1!
#8300
0!
#8350
1!
#8400
0!
#8450
1!
#8500
0!
#8550
1!
#8600
0!
#8650
1!
#8700
0!
#8750
1!
#8800
0!
#8850
1!
#8900
0!
#8950
1!
#9000
0!
#9050
1!
#9100
0!
#9150
1!
#9200
0!
#9250
1!
#9300
0!
#9350
1!
#9400
0!
#9450
1!
#9500
0!
#9550
1!
#9600
0!
#9650
1!
#9700
0!
#9750
1!
#9800
0!
#9850
1!
#9900
0!
#9950
1!
#10000
0!
#10050
1!
#10100
0!
#10150
1!
#10200
0!
#10250
1!
#10300
0!
#10350
1!
#10400
0!
#10450
1!
#10500
0!
#10550
1!
#10600
0!
#10650
1!
09
#10700
0!
b111111111111 1
18
10
1/
1.
1-
1,
1+
1*
1)
b11111111111111111111 ;
#10750
1!
08
#10800
0!
z0
z/
z.
z-
z,
z+
z*
z)
#10850
1!
05
0:
#10900
0!
#10950
1!
#11000
0!
15
19
1:
